MASTEMR - Quantitative methods in the context of STEM education research
…
use the inbuilt R command to deal with filenames: r"[C:\myfolder\]"

library(tidyverse)
PISA_2018 <- readRDS("<yourfolder>/pisa_student_2018.rds")

2.7.4 exploring data

Now that we have loaded the PISA_2018 dataset we can start to explore it.

You can check that the tables have loaded correctly by typing the object name and ‘running’ the line (control|command and Enter)

PISA_2018

# A tibble: 612,004 × 204
   CNT     OECD  ISCEDL   ISCEDD ISCEDO PROGN WVARS…¹ COBN_F COBN_M COBN_S GRADE
   <fct>   <fct> <fct>    <fct>  <fct>  <fct>   <dbl> <fct>  <fct>  <fct>  <fct>
 1 Albania No    ISCED l… C      Vocat… Alba…       3 Alban… Alban… Alban… 0    
 2 Albania No    ISCED l… C      Vocat… Alba…       3 Alban… Alban… Alban… 0    
 3 Albania No    ISCED l… C      Vocat… Alba…       3 Alban… Alban… Alban… 0    
 4 Albania No    ISCED l… C      Vocat… Alba…       3 Alban… Alban… Alban… 0    
 5 Albania No    ISCED l… C      Vocat… Alba…       3 Alban… Alban… Alban… 0    
 6 Albania No    ISCED l… C      Vocat… Alba…       3 Alban… Alban… Alban… 0    
 7 Albania No    ISCED l… C      Vocat… Alba…       3 Missi… Missi… Missi… 0    
 8 Albania No    ISCED l… C      Vocat… Alba…       3 Alban… Alban… Alban… 0    
 9 Albania No    ISCED l… C      Vocat… Alba…       3 Alban… Alban… Alban… 0    
10 Albania No    ISCED l… C      Vocat… Alba…       3 Missi… Missi… Missi… 0    
# … with 611,994 more rows, 193 more variables: SUBNATIO <fct>, STRATUM <fct>,
#   ESCS <dbl>, LANGN <fct>, LMINS <fct>, OCOD1 <fct>, OCOD2 <fct>,
#   REPEAT <fct>, CNTRYID <fct>, CNTSCHID <dbl>, CNTSTUID <dbl>, NatCen <fct>,
#   ADMINMODE <fct>, LANGTEST_QQQ <fct>, LANGTEST_COG <fct>, BOOKID <fct>,
#   ST001D01T <fct>, ST003D02T <fct>, ST003D03T <fct>, ST004D01T <fct>,
#   ST005Q01TA <fct>, ST007Q01TA <fct>, ST011Q01TA <fct>, ST011Q02TA <fct>,
#   ST011Q03TA <fct>, ST011Q04TA <fct>, ST011Q05TA <fct>, ST011Q06TA <fct>, …
…
