Loading packages and exploring data – MASTEMR
…
Note

To learn more about loading data from in other formats, e.g. SPSS and STATA, look at the tidyverse documentation for haven.

The PISA_2022 dataframe is made up of multiple columns, with each column acting like a vector, which means each column stores values of only one datatype. If we look at the first four columns of the schools table, you can see the CNTSTUID, ESCS and PV1MATH columns are <dbl> (numeric) and the other three columns are of <fctr> (factor), a special datatype in R that helps store categorical and ordinal variables, see ?@sec-factors for more information on how factors work.

# A tibble: 5 × 5
  CNTSTUID ST004D01T CNT       ESCS PV1MATH
     <dbl> <fct>     <fct>    <dbl>   <dbl>
1   800001 Female    Albania  1.11     180.
2   800002 Male      Albania -3.05     308.
3   800003 Male      Albania -0.187    268.
4   800005 Female    Albania -3.22     273.
5   800006 Female    Albania -1.05     435.

Note

Vectors are data structures that bring together one or more data elements of the same datatype. E.g. we might have a numeric vector recording the grades of a class, or a character vector storing the gender of a set of students. To define a vector we use c(item, item, ...), where c stands for combine. Vectors are very important to R, even declaring a single object, x <- 6, is creating a vector of size one. To find out more about vectors see: ?@sec-vectors

We can find out some general information about the table we have loaded. nrow and ncol tell you about the dimensions of the table

nrow(PISA_2022)  # how many rows are in the results table

[1] 613744

ncol(PISA_2022)  # how many columns are in the results table

[1] 84

If we want to know the names of the columns we can use the names() command that returns a vector. This can be a little confusing as it’ll return the names used in the dataframe, which can be hard to interpret, e.g. ST004D01T is PISA’s way of encoding gender. You might find the labels in the view of the table available through View(PISA_2022) (note: the capital V in View) and the Environment panel easier to navigate:

names(PISA_2022) # the column names of a table

 [1] "CNT"          "CNTSCHID"     "CNTSTUID"     "REGION"       "OECD"        
 [6] "LANGTEST_QQQ" "ST003D02T"    "ST003D03T"    "ST004D01T"    "ST250Q01JA"  
[11] "ST250Q02JA"   "ST250Q03JA"   "ST250Q05JA"   "ST251Q01JA"   "ST251Q06JA"  
[16] "ST251Q07JA"   "ST253Q01JA"   "ST254Q01JA"   "ST254Q02JA"   "ST254Q03JA"  
[21] "ST254Q04JA"   "ST254Q05JA"   "ST254Q06JA"   "ST255Q01JA"   "ST256Q02JA"  
[26] "ST005Q01JA"   "ST007Q01JA"   "ST019AQ01T"   "ST019BQ01T"   "ST019CQ01T"  
[31] "ST125Q01NA"   "ST261Q01JA"   "ST261Q04JA"   "ST062Q02TA"   "ST038Q08NA"  
[36] "ST016Q01NA"   "ST337Q07JA"   "ST324Q11JA"   "ST355Q03JA"   "FL150Q02TA"  
 [ reached 'max' / getOption("max.print") -- omitted 44 entries ]
…
