Piping and dplyr – MASTEMR
…
But here we are going to look at how R handles factors. Factors have two parts, levels and codes. levels are what you see when you view a table column, codes are an underlying order to the data. Factors allow you to store data that has a known set of values that you might want to display in an order other than alphabetical. For example, if we look at the month field ST003D02T using the levels(<field>) command:

levels(PISA_2022$ST003D02T)

 [1] "January"        "February"       "March"          "April"         
 [5] "May"            "June"           "July"           "August"        
 [9] "September"      "October"        "November"       "December"      
[13] "Valid Skip"     "Not Applicable" "Invalid"        "No Response"   

We can see that the months of the year are there along with other possible levels. With this particular column there are levels for missing or wrong responses (“Valid Skip”, “Not Applicable” “Invalid”, “No Response”), though PISA rarely uses them. You are more likely to find that missing/wrong data items are coded as NA, as you can see below:

PISA_2022 %>% count(ST003D02T)

# A tibble: 13 × 2
   ST003D02T     n
   <fct>     <int>
 1 January   48760
 2 February  43030
 3 March     48671
 4 April     47014
 5 May       49235
 6 June      48890
 7 July      51262
 8 August    51681
 9 September 51755
10 October   51703
11 November  48179
12 December  48156
13 <NA>      25408

Codes are the underlying numbers/order for each level, in this case 1 = January, 2 = February, etc. R stores factors as codes, then uses the levels to display the data. You can see the codes by using the as.numeric command on a factor:

as.numeric(PISA_2022$ST003D02T)

 [1]  5  2  8  7  1  5  5 12  8  9 10  4  5  8  7  2  3  6  3  8 10  1 10  2  5
[26]  6  8  1  3  2  5  7 12  4  1 10 10  3  3  9
 [ reached 'max' / getOption("max.print") -- omitted 613704 entries ]
…
