MASTEMR - 06 Hypothesis testing and Chi-square tests
…
Tip

To sort a table, the easiest way is to convert it to a data frame and then use the arrange function. The default order for arrange is ascending, adding desc switches to descending.

# Arranging a table

PISA_2022 %>%
  select(CNT, ST250Q05JA) %>% # Select internet and country variables
  filter(ST250Q05JA == "Yes") %>% 
  group_by(CNT) %>%
  count() %>%
  arrange(desc(n))

# A tibble: 79 × 2
# Groups:   CNT [79]
   CNT                      n
   <fct>                <int>
 1 Spain                29350
 2 United Arab Emirates 22206
 3 Canada               21206
 4 Kazakhstan           17450
 5 Australia            12808
 6 United Kingdom       11236
 7 Argentina            10484
 8 Italy                10026
 9 Finland               9745
10 Brazil                9379
# ℹ 69 more rows
…
