MASTEMR - Loading packages and exploring data
…
You might want to save your own work as a .csv for use later or for manipulation in another tool e.g. Excel. To do this we can use write_csv(<your_data>, "<your_folder><name>.csv"). NOTE: don’t forget to add .csv to the end of your “.csv”, otherwise you might struggle to open the file in another program.

library(tidyverse)
# loading from a website
write_csv(data, "summary_stats.csv")

8 Exploring data

Now that we have loaded the PISA_2018 dataset we can start to explore it.

You can check that the tables have loaded correctly by typing the object name and ‘running’ the line (control|command ⌘ and Enter)

PISA_2018

# A tibble: 612,004 × 205
   CNT     OECD  ISCEDL  ISCEDD ISCEDO PROGN WVARSTRR COBN_F COBN_M COBN_S GRADE
 * <fct>   <fct> <fct>   <fct>  <fct>  <fct>    <dbl> <fct>  <fct>  <fct>  <fct>
 1 Albania No    ISCED … C      Vocat… Alba…        3 Alban… Alban… Alban… 0    
 2 Albania No    ISCED … C      Vocat… Alba…        3 Alban… Alban… Alban… 0    
 3 Albania No    ISCED … C      Vocat… Alba…        3 Alban… Alban… Alban… 0    
 4 Albania No    ISCED … C      Vocat… Alba…        3 Alban… Alban… Alban… 0    
 5 Albania No    ISCED … C      Vocat… Alba…        3 Alban… Alban… Alban… 0    
 6 Albania No    ISCED … C      Vocat… Alba…        3 Alban… Alban… Alban… 0    
 7 Albania No    ISCED … C      Vocat… Alba…        3 Missi… Missi… Missi… 0    
 8 Albania No    ISCED … C      Vocat… Alba…        3 Alban… Alban… Alban… 0    
 9 Albania No    ISCED … C      Vocat… Alba…        3 Alban… Alban… Alban… 0    
10 Albania No    ISCED … C      Vocat… Alba…        3 Missi… Missi… Missi… 0    
# ℹ 611,994 more rows
# ℹ 194 more variables: SUBNATIO <fct>, STRATUM <fct>, ESCS <dbl>, LANGN <fct>,
#   LMINS <dbl>, OCOD1 <fct>, OCOD2 <fct>, REPEAT <fct>, CNTRYID <fct>,
#   CNTSCHID <dbl>, CNTSTUID <dbl>, NatCen <fct>, ADMINMODE <fct>,
#   LANGTEST_QQQ <fct>, LANGTEST_COG <fct>, BOOKID <fct>, ST001D01T <fct>,
#   ST003D02T <fct>, ST003D03T <fct>, ST004D01T <fct>, ST005Q01TA <fct>,
#   ST007Q01TA <fct>, ST011Q01TA <fct>, ST011Q02TA <fct>, ST011Q03TA <fct>, …
…
