MASTEMR - Piping and dplyr
…
The pipe command we are using %>% is from the magrittr package which is installed alongside the tidyverse. Recently R introduced another pipe |> which offers very similar functionality and tutorials online might use either. The examples below use the %>% pipe.

Let’s look at an example of using the pipe on the PISA_2018 table to calculate the best performing OECD countries for maths PV1MATH by gender ST004D01T:

PISA_2018 %>% 
  filter(OECD == "Yes") %>%
  group_by(CNT, ST004D01T) %>% 
  summarise(mean_maths = mean(PV1MATH, na.rm=TRUE),
            sd_maths = sd(PV1MATH, na.rm=TRUE),
            students = n()) %>%
  filter(!is.na(ST004D01T)) %>%
  arrange(desc(mean_maths))

# A tibble: 74 × 5
# Groups:   CNT [37]
   CNT            ST004D01T mean_maths sd_maths students
   <fct>          <fct>          <dbl>    <dbl>    <int>
 1 Japan          Male            533.     90.5     2989
 2 Korea          Male            530.    102.      3459
 3 Estonia        Male            528.     85.0     2665
 4 Japan          Female          523.     82.2     3120
 5 Korea          Female          523.     96.0     3191
 6 Switzerland    Male            520.     92.7     3033
 7 Estonia        Female          519.     76.0     2651
 8 Czech Republic Male            518.     98.0     3501
 9 Belgium        Male            518.     95.9     4204
10 Poland         Male            517.     91.8     2768
# ℹ 64 more rows
…
1 select

The PISA_2018 dataset has far too many fields, to reduce the number of fields to focus on just a few of them we can use select

PISA_2018 %>% select(CNT,ESCS, ST004D01T, ST003D02T)

# A tibble: 612,004 × 4
   CNT       ESCS ST004D01T ST003D02T
   <fct>    <dbl> <fct>     <fct>    
 1 Albania  0.675 Male      February 
 2 Albania -0.757 Male      July     
 3 Albania -2.51  Female    April    
 4 Albania -3.18  Male      April    
 5 Albania -1.76  Male      March    
 6 Albania -1.49  Female    February 
 7 Albania NA     Female    July     
 8 Albania -3.25  Male      August   
 9 Albania -1.72  Female    March    
10 Albania NA     Female    July     
# ℹ 611,994 more rows

You might also be in the situation where you want to select everything but one or two fields, you can do this with the negative signal -:

PISA_2018 %>% select(-CNT, -OECD)

# A tibble: 612,004 × 203
   ISCEDL       ISCEDD ISCEDO PROGN WVARSTRR COBN_F COBN_M COBN_S GRADE SUBNATIO
   <fct>        <fct>  <fct>  <fct>    <dbl> <fct>  <fct>  <fct>  <fct> <fct>   
 1 ISCED level… C      Vocat… Alba…        3 Alban… Alban… Alban… 0     Albania 
 2 ISCED level… C      Vocat… Alba…        3 Alban… Alban… Alban… 0     Albania 
 3 ISCED level… C      Vocat… Alba…        3 Alban… Alban… Alban… 0     Albania 
 4 ISCED level… C      Vocat… Alba…        3 Alban… Alban… Alban… 0     Albania 
 5 ISCED level… C      Vocat… Alba…        3 Alban… Alban… Alban… 0     Albania 
 6 ISCED level… C      Vocat… Alba…        3 Alban… Alban… Alban… 0     Albania 
 7 ISCED level… C      Vocat… Alba…        3 Missi… Missi… Missi… 0     Albania 
 8 ISCED level… C      Vocat… Alba…        3 Alban… Alban… Alban… 0     Albania 
 9 ISCED level… C      Vocat… Alba…        3 Alban… Alban… Alban… 0     Albania 
10 ISCED level… C      Vocat… Alba…        3 Missi… Missi… Missi… 0     Albania 
# ℹ 611,994 more rows
# ℹ 193 more variables: STRATUM <fct>, ESCS <dbl>, LANGN <fct>, LMINS <dbl>,
#   OCOD1 <fct>, OCOD2 <fct>, REPEAT <fct>, CNTRYID <fct>, CNTSCHID <dbl>,
#   CNTSTUID <dbl>, NatCen <fct>, ADMINMODE <fct>, LANGTEST_QQQ <fct>,
#   LANGTEST_COG <fct>, BOOKID <fct>, ST001D01T <fct>, ST003D02T <fct>,
#   ST003D03T <fct>, ST004D01T <fct>, ST005Q01TA <fct>, ST007Q01TA <fct>,
#   ST011Q01TA <fct>, ST011Q02TA <fct>, ST011Q03TA <fct>, ST011Q04TA <fct>, …

You might find that you have a vector of column names that you want to select, to do this, we can use the any_of command:

my_fields <- c("CNTSTUID", "CNTSCHID", "ST004D01T")
PISA_2018 %>% select(any_of(my_fields))

# A tibble: 612,004 × 3
   CNTSTUID CNTSCHID ST004D01T
      <dbl>    <dbl> <fct>    
 1   800251   800002 Male     
 2   800402   800002 Male     
 3   801902   800002 Female   
 4   803546   800002 Male     
 5   804776   800002 Male     
 6   804825   800002 Female   
 7   804983   800002 Female   
 8   805287   800002 Male     
 9   805601   800002 Female   
10   806295   800002 Female   
# ℹ 611,994 more rows

With hundreds of fields, you might want to focus on fields whose names match a certain pattern, to do this you can use starts_with, ends_with, contains:

PISA_2018 %>% select(ends_with("NA"))

# A tibble: 612,004 × 19
   ST011Q16NA ST012Q05NA  ST012Q06NA ST012Q09NA ST125Q01NA ST060Q01NA ST061Q01NA
   <fct>      <fct>       <fct>      <fct>      <fct>           <dbl> <fct>     
 1 Yes        <NA>        One        One        6 years o…         31 45        
 2 Yes        Three or m… One        None       4 years            37 45        
 3 No         One         None       None       4 years            NA 45        
 4 No         <NA>        None       One        1 year or…         31 45        
 5 No         One         One        None       3 years            80 100       
 6 No         Three or m… One        None       6 years o…         24 25        
 7 <NA>       <NA>        <NA>       <NA>       <NA>               NA <NA>      
 8 No         None        None       None       1 year or…         NA 45        
 9 Yes        Three or m… One        One        4 years            36 45        
10 <NA>       <NA>        <NA>       <NA>       <NA>               NA <NA>      
# ℹ 611,994 more rows
# ℹ 12 more variables: IC009Q05NA <fct>, IC009Q06NA <fct>, IC009Q07NA <fct>,
#   IC009Q10NA <fct>, IC009Q11NA <fct>, IC008Q07NA <fct>, IC008Q13NA <fct>,
#   IC010Q02NA <fct>, IC010Q05NA <fct>, IC010Q06NA <fct>, IC010Q09NA <fct>,
#   IC010Q10NA <fct>
…
[EXTENSION] Adjust the answer to Q3 so that you select the gender ST004D01T and the ID CNTSTUID of each student in addition to the IC15____ fields

answer
PISA_2018 %>% 
  select(CNTSTUID, ST004D01T, starts_with("IC15"))

2 filter

Not only does the PISA_2018 dataset have a huge number of columns, it has hundred of thousands of rows. We want to filter this down to the students that we are interested in, i.e. filter out data that isn’t useful for our analysis. If we only wanted the results that were Male, we could do the following:

PISA_2018 %>% 
  select(CNT, ESCS, ST004D01T, ST003D02T, PV1MATH) %>%
  filter(ST004D01T == "Male")

# A tibble: 307,044 × 5
   CNT       ESCS ST004D01T ST003D02T PV1MATH
   <fct>    <dbl> <fct>     <fct>       <dbl>
 1 Albania  0.675 Male      February     490.
 2 Albania -0.757 Male      July         462.
 3 Albania -3.18  Male      April        483.
 4 Albania -1.76  Male      March        460.
 5 Albania -3.25  Male      August       441.
 6 Albania NA     Male      March        280.
 7 Albania -1.09  Male      March        523.
 8 Albania -1.24  Male      June         314.
 9 Albania -0.164 Male      August       428.
10 Albania -0.451 Male      December     369.
# ℹ 307,034 more rows

We can combine filter commands to look for Males born in September and where the PV1MATH figure is greater than 750. We can list multiple criteria in the filter by separating the criteria with commas, using commas mean that all of these criteria need to be TRUE for a row to be returned. A comma in a filter is the equivalent of an AND, :

PISA_2018 %>% 
  select(CNT, ESCS, ST004D01T, ST003D02T, PV1MATH) %>%
  filter(ST004D01T == "Male",
         ST003D02T == "September",
         PV1MATH > 750)

# A tibble: 56 × 5
   CNT                    ESCS ST004D01T ST003D02T PV1MATH
   <fct>                 <dbl> <fct>     <fct>       <dbl>
 1 United Arab Emirates  0.861 Male      September    760.
 2 Belgium               0.887 Male      September    751.
 3 Bulgaria             -0.160 Male      September    752.
 4 Canada                1.38  Male      September    751.
 5 Canada                1.16  Male      September    760.
 6 Canada                0.760 Male      September    770.
 7 Switzerland           0.814 Male      September    783.
 8 Germany               0.740 Male      September    762.
 9 Spain                 1.46  Male      September    787.
10 Estonia               0.897 Male      September    752.
# ℹ 46 more rows
…
# A tibble: 0 × 5
# ℹ 5 variables: CNT <fct>, ESCS <dbl>, ST004D01T <fct>, ST003D02T <fct>,
#   PV1MATH <dbl>

The reason is R is looking for inidividual students born in September AND October AND November AND December. As a student can only have one birth month there are no students that meet this criteria. We need to use OR :

To create an OR in a filter we use the bar | character, the below looks for all students who are “Male” AND were born in “September” OR “October” OR “November” OR “December”, AND have a PV1MATH > 750.

PISA_2018 %>% 
  select(CNT, ESCS, ST004D01T, ST003D02T, PV1MATH) %>%
  filter(ST004D01T == "Male",
         (ST003D02T == "September" | ST003D02T == "October" | ST003D02T == "November" | ST003D02T == "December"),
         PV1MATH > 750)

# A tibble: 175 × 5
   CNT                     ESCS ST004D01T ST003D02T PV1MATH
   <fct>                  <dbl> <fct>     <fct>       <dbl>
 1 Albania               0.539  Male      October      789.
 2 United Arab Emirates  0.861  Male      September    760.
 3 United Arab Emirates  0.813  Male      October      753.
 4 United Arab Emirates  0.953  Male      November     766.
 5 United Arab Emirates  0.930  Male      November     773.
 6 United Arab Emirates  1.44   Male      October      752.
 7 Australia             1.73   Male      December     756.
 8 Australia            -0.0537 Male      October      827.
 9 Australia             1.18   Male      November     758.
10 Australia             1.13   Male      October      757.
# ℹ 165 more rows
…
Line 1 passes the full PISA_2018 to the pipe

Line 2 makes groups within PISA_2018 using the unique values of ST011Q06TA

Line 3, these groups are then passed to summarise, which creates a new column called student_n and stores the number of rows in each ST011Q06TA group using the n() command. summarise only returns the columns it creates, or are in the group_by, everything else is discarded.

What we might want to do is look at this data from a country by country perspective, by adding another field to the group_by() command, we then group by the unique combination of countries CNT and internet access ST011Q06TA, e.g. Albania+Yes; Albania+No; Albania+NA; Brazil+Yes; etc

int_by_cnt <- PISA_2018 %>% 
  group_by(CNT, ST011Q06TA) %>%
  summarise(student_n = n())

print(int_by_cnt)

# A tibble: 240 × 3
# Groups:   CNT [80]
   CNT                  ST011Q06TA student_n
   <fct>                <fct>          <int>
 1 Albania              Yes             5059
 2 Albania              No              1084
 3 Albania              <NA>             216
 4 United Arab Emirates Yes            17616
 5 United Arab Emirates No               949
 6 United Arab Emirates <NA>             712
 7 Argentina            Yes             9871
 8 Argentina            No              1781
 9 Argentina            <NA>             323
10 Australia            Yes            12547
# ℹ 230 more rows

summarise can also be used to work out statistics by grouping. For example, if you wanted to find out the max, mean and min science grade PV1SCIE by country CNT, you could do the following:

PISA_2018 %>% 
  group_by(CNT) %>%
  summarise(sci_max  = max(PV1SCIE,  na.rm = TRUE),
            sci_mean = mean(PV1SCIE, na.rm = TRUE),
            sci_min  = min(PV1SCIE,  na.rm = TRUE))

# A tibble: 80 × 4
   CNT                    sci_max sci_mean sci_min
   <fct>                    <dbl>    <dbl>   <dbl>
 1 Albania                   674.     417.   166. 
 2 United Arab Emirates      778.     425.    86.3
 3 Argentina                 790.     418.   138. 
 4 Australia                 879.     502.   153. 
 5 Austria                   779.     493.   175. 
 6 Belgium                   764.     502.   196. 
 7 Bulgaria                  741.     426.   145. 
 8 Bosnia and Herzegovina    664.     398.   152. 
 9 Belarus                   799.     474.   192. 
10 Brazil                    747.     407.    95.6
# ℹ 70 more rows
…
5 mutate

Sometimes you will want to adjust the values stored in a field, e.g. converting a distance in miles into kilometres; or compute a new fields based on other fields, e.g. working out a total grade given the parts of a test. To do this we can use mutate. Unlike summarise, mutate retains all the other columns either adding a new column or changing an existing one

mutate(<field> = <field_calculation>)

The PISA_2018 dataset has results for maths PV1MATH, science PV1SCIE and reading PV1READ. We could combine these to create an overall PISA_grade, and PISA_mean:

PISA_2018 %>%
  mutate(PV1_total = PV1MATH + PV1SCIE + PV1READ,
         PV1_mean = PV1_total/3) %>%
  select(CNT, ESCS, PV1_total, PV1_mean)

# A tibble: 612,004 × 4
   CNT       ESCS PV1_total PV1_mean
   <fct>    <dbl>     <dbl>    <dbl>
 1 Albania  0.675     1311.     437.
 2 Albania -0.757     1319.     440.
 3 Albania -2.51      1158.     386.
 4 Albania -3.18      1424.     475.
 5 Albania -1.76      1094.     365.
 6 Albania -1.49      1004.     335.
 7 Albania NA         1311.     437.
 8 Albania -3.25      1104.     368.
 9 Albania -1.72      1268.     423.
10 Albania NA         1213.     404.
# ℹ 611,994 more rows

line 2 mutate creates a new field called PV1_total made up by adding together the columns for maths, science and reading. Each column acts like a vector and adding them together is the equivalent of adding each students individual grades together, row by row. See ?@sec-vectors for more details on vector addition.

line 3 inside the same mutate statement, we take the PV1_total calculated on line 2 and divide it by 3, to give us a mean value, this is then assigned to a new column, PV1_mean.

line 4 this line selects only the fields that we are interested in, dropping the others

We can use mutate to create subsets of data in fields. For example, if we wanted to see how many students in each country were high performing readers, specified by getting a reading grade of greater than 550, we could do the following:

PISA_2018 %>%
  mutate(PV1READ_high = PV1READ > 550) %>%
  group_by(CNT, PV1READ_high) %>%
  summarise(n = n())

# A tibble: 159 × 3
# Groups:   CNT [80]
   CNT                  PV1READ_high     n
   <fct>                <lgl>        <int>
 1 Albania              FALSE         6083
 2 Albania              TRUE           276
 3 United Arab Emirates FALSE        16567
 4 United Arab Emirates TRUE          2710
 5 Argentina            FALSE        11003
 6 Argentina            TRUE           972
 7 Australia            FALSE         9311
 8 Australia            TRUE          4962
 9 Austria              FALSE         4900
10 Austria              TRUE          1902
# ℹ 149 more rows
…
line 8 count the number of students, n in each group, as specified by line 7.

line 9 create a percentage figure for the number of students in each grouping given by line 7. Use the n value from line 8 and the students_n value from line 6. NOTE: we need to use unique(students_n) to return just one value for each grouping rather than a value for every row of the line 7 grouping

For more information on how to mutate fields using ifelse, see Section 8.1

6 arrange

The results returned by pipes can be huge, so it’s a good idea to store them in objects and explore them in the Environment window where you can sort and search within the output. There might also be times when you want to order/arrange the outputs in a particular way. We can do this quite easily in the tidyverse by using the arrange(<column_name>, <column_name>) function.

PISA_2018 %>%
  select(CNT, ST004D01T, PV1MATH) %>%
  arrange(PV1MATH)

# A tibble: 612,004 × 3
   CNT             ST004D01T PV1MATH
   <fct>           <fct>       <dbl>
 1 Philippines     Female       24.7
 2 Jordan          Male         51.0
 3 Jordan          Female       61.6
 4 Mexico          Female       64.3
 5 Kazakhstan      Male         70.4
 6 Jordan          Male         70.7
 7 Bulgaria        Male         73.4
 8 Kosovo          Male         76.0
 9 North Macedonia Female       78.3
10 North Macedonia Male         81.2
# ℹ 611,994 more rows

If we’re interested in the highest achieving students we can add the desc() function to arrange:

PISA_2018 %>%
  select(CNT, LANGN, ST004D01T, PV1MATH) %>%
  arrange(desc(PV1MATH))

# A tibble: 612,004 × 4
   CNT                  LANGN                  ST004D01T PV1MATH
   <fct>                <fct>                  <fct>       <dbl>
 1 Canada               Another language (CAN) Male         888.
 2 Canada               Another language (CAN) Male         874.
 3 United Arab Emirates English                Male         865.
 4 B-S-J-Z (China)      Mandarin               Female       864.
 5 Australia            English                Male         863.
 6 B-S-J-Z (China)      Mandarin               Male         861.
 7 Serbia               Serbian                Male         860.
 8 Singapore            Invalid                Female       849.
 9 Australia            Cantonese              Male         845.
10 Canada               French                 Female       842.
# ℹ 611,994 more rows
…
print(data_repeat)

write_csv(data_repeat, "<folder_location>/repeat_a_year.csv")

# A tibble: 77 × 5
# Groups:   CNT [77]
   CNT                REPEAT            student_n total   per
   <fct>              <fct>                 <int> <int> <dbl>
 1 Morocco            Repeated a  grade      3333  6666 0.5  
 2 Colombia           Repeated a  grade      2746  7185 0.382
 3 Lebanon            Repeated a  grade      1580  4756 0.332
 4 Uruguay            Repeated a  grade      1657  5049 0.328
 5 Luxembourg         Repeated a  grade      1655  5168 0.320
 6 Dominican Republic Repeated a  grade      1694  5474 0.309
 7 Brazil             Repeated a  grade      3227 10438 0.309
 8 Macao              Repeated a  grade      1135  3773 0.301
 9 Belgium            Repeated a  grade      2351  8089 0.291
10 Costa Rica         Repeated a  grade      1904  6571 0.290
# ℹ 67 more rows
…
ifelse(<statement(s)>, <value_if_true>, <value_if_false>)

ifelse allows us to recode the data. In the example below, we are going to add a new column to the PISA_2018 dataset (using mutate) noting whether a student got a higher grade in their Maths PV1MATH or Reading PV1READ tests. if PV1MATH is bigger then PV1READ, the maths_better is TRUE, else maths_better is FALSE, or in dplyr format:

maths_data <- PISA_2018 %>%
  mutate(maths_better = 
           ifelse(PV1MATH > PV1READ,
                  TRUE, 
                  FALSE)) %>%
  select(CNT, ST004D01T, maths_better, PV1MATH, PV1READ)

print(maths_data)

# A tibble: 612,004 × 5
   CNT     ST004D01T maths_better PV1MATH PV1READ
   <fct>   <fct>     <lgl>          <dbl>   <dbl>
 1 Albania Male      TRUE            490.    376.
 2 Albania Male      TRUE            462.    434.
 3 Albania Female    TRUE            407.    359.
 4 Albania Male      TRUE            483.    425.
 5 Albania Male      TRUE            460.    306.
 6 Albania Female    TRUE            367.    352.
 7 Albania Female    FALSE           411.    413.
 8 Albania Male      TRUE            441.    271.
 9 Albania Female    TRUE            506.    373.
10 Albania Female    FALSE           412.    412.
# ℹ 611,994 more rows
…
